{
        "pageref": "page_3",
        "startedDateTime": "2017-12-23T20:45:33.843+01:00",
        "time": null,
        "request": {
          "bodySize": 1537,
          "method": "POST",
          "url": "https://www.viberate.com/artists/addnewartist?Length=7",
          "httpVersion": "HTTP/1.1",
          "headers": [
            {
              "name": "Host",
              "value": "www.viberate.com"
            },
            {
              "name": "User-Agent",
              "value": "Mozilla/5.0 (Windows NT 10.0; Win64; x64; rv:57.0) Gecko/20100101 Firefox/57.0"
            },
            {
              "name": "Accept",
              "value": "*/*"
            },
            {
              "name": "Accept-Language",
              "value": "en-US,en;q=0.5"
            },
            {
              "name": "Accept-Encoding",
              "value": "gzip, deflate, br"
            },
            {
              "name": "Referer",
              "value": "https://www.viberate.com/"
            },
            {
              "name": "Content-Type",
              "value": "application/x-www-form-urlencoded; charset=UTF-8"
            },
            {
              "name": "X-Requested-With",
              "value": "XMLHttpRequest"
            },
            {
              "name": "Content-Length",
              "value": "1537"
            },
            {
              "name": "Cookie",
              "value": "isMainLandingBannerShown={%22IsShown%22:false%2C%22BannerGuid%22:%228845190%22}; .AspNet.ApplicationCookie=U4e_uDJhARxeBuUvYh7iqkLA7UbjqKPy2ibVbOe0l0469c360fe-EaDYrHa1b7TWmiEZz4Hn_mROloebZsWOfhPSpWD1PwJ1ELurBYLSixE8iMxU0j2zv61wGShQMnwlTC52apYw2x3Q0TXenuxV0lRq-3cWMLynBUptXvjluK8S-m2rGw72meMD9JdgFxnhj40FtpS9dnV9rcqqdXQ_q4p0n4YEiSBiYV9jRqWfSbcNLrQyv71935HFEZkuFGBe7HmvsI88VmC7fVKNH9v-jFhsA9wSK5DzrtppVREKab8Y8MbM7B9T96Hp09iQJ1gR4zUUUFSb3KVYVs0W-_omYEwQ2C3cHZVs9vuGcM8f9TF4cVZTxZIYsXTjnH7SFfZ-96Biszg9hNIKXS4exsjKNa2wQGMj7-2gN-mWb0UbSs6aHCmRTjji1D1IQkgaTkAye6bHOQaNrSC4oFQ87RdV6RJB1TQeb5gC7iCnv8x2Wt9yw5zd4kYgXS80kLacoPWCY6yKikbiTs9x3NO8ZtEAPImuiyZE9xoMdmLD75a5q6KkLVz9S9ynsxuiPBE3mXzs; __RequestVerificationToken=Yc37wupoElUPYZ9WGytV1nYRDf5epKUMzS6Ly2zQSBbIslvo4dL7QuGNyMB0HkZb7mbsJKmbcoW_n9LIj5LzAD8j6s4FYEZz83aQyeqfJdo1; ARRAffinity=bf14847bc8c3ac4f832144341f6ea1a69331de6bee645b72a4f6d31257bd51bf; footer-star-rating-opened=true"
            },
            {
              "name": "Connection",
              "value": "keep-alive"
            }
          ],
          "cookies": [],
          "queryString": [
            {
              "name": "Length",
              "value": "7"
            }
          ],
          "postData": {
            "mimeType": "application/x-www-form-urlencoded",
            "params": [],
            "text": "__RequestVerificationToken=sctggwdNOdjxJoCztn-MnfkmDc23A-IEX_vFeFDYkhVksULaDpiOIcP5QFzGtl2F8dhVG6J8RU7P7yqAQVx3GIgUte5h8oIeaJH_RMZ68VHClHFkzvvGONCoZXRT7yUj2FvJ1RXgMjk2lHwaiMZL5g2&Name=Dragonlord&NewArtistCountryId_input=United+States&NewArtistCountryId=US&NewArtistGenreId_input=Rock+%2F+Metal&NewArtistGenreId=3&FirstSubGenreId_input=Metal&FirstSubGenreId=13&SecondSubGenreId_input=&SecondSubGenreId=&PrimaryLinkSpotify.PrimaryArtistLink.ChannelId=16&PrimaryLinkSpotify.PrimaryArtistLink.Url=&PrimaryLinkFacebook.PrimaryArtistLink.ChannelId=2&PrimaryLinkFacebook.PrimaryArtistLink.Url=https%3A%2F%2Fwww.facebook.com%2Fenterthedragonlord&ArtistLinks%5B0%5D.ChannelId=3&ArtistLinks%5B0%5D.Url=https%3A%2F%2Ftwitter.com%2Fdragonlordband&ArtistLinks%5B1%5D.ChannelId=4&ArtistLinks%5B1%5D.Url=&ArtistLinks%5B2%5D.ChannelId=5&ArtistLinks%5B2%5D.Url=&ArtistLinks%5B3%5D.ChannelId=9&ArtistLinks%5B3%5D.Url=&ArtistLinks%5B4%5D.ChannelId=12&ArtistLinks%5B4%5D.Url=&ArtistLinks%5B5%5D.ChannelId=1&ArtistLinks%5B5%5D.Url=http%3A%2F%2Fwww.enterthedragonlord.com%2F&ArtistLinks%5B6%5D.ChannelId=6&ArtistLinks%5B6%5D.Url=&ArtistLinks%5B7%5D.ChannelId=7&ArtistLinks%5B7%5D.Url=&ArtistLinks%5B8%5D.ChannelId=8&ArtistLinks%5B8%5D.Url=&ArtistLinks%5B9%5D.ChannelId=10&ArtistLinks%5B9%5D.Url=&ArtistLinks%5B10%5D.ChannelId=11&ArtistLinks%5B10%5D.Url=&ArtistLinks%5B11%5D.ChannelId=13&ArtistLinks%5B11%5D.Url=&ArtistLinks%5B12%5D.ChannelId=14&ArtistLinks%5B12%5D.Url=&ArtistLinks%5B13%5D.ChannelId=15&ArtistLinks%5B13%5D.Url=&X-Requested-With=XMLHttpRequest"
          },
          "headersSize": 1366
        },
        "response": {
          "status": 200,
          "statusText": "OK",
          "httpVersion": "HTTP/1.1",
          "headers": [
            {
              "name": "Cache-Control",
              "value": "private, s-maxage=0"
            },
            {
              "name": "Content-Length",
              "value": "161"
            },
            {
              "name": "Content-Type",
              "value": "application/json; charset=utf-8"
            },
            {
              "name": "Content-Encoding",
              "value": "gzip"
            },
            {
              "name": "Vary",
              "value": "Accept-Encoding"
            },
            {
              "name": "Server",
              "value": "Microsoft-IIS/8.0"
            },
            {
              "name": "X-AspNetMvc-Version",
              "value": "5.2"
            },
            {
              "name": "X-AspNet-Version",
              "value": "4.0.30319"
            },
            {
              "name": "X-Powered-By",
              "value": "ASP.NET"
            },
            {
              "name": "Date",
              "value": "Sat, 23 Dec 2017 19:45:33 GMT"
            }
          ],
          "cookies": [],
          "content": {
            "mimeType": "application/json; charset=utf-8",
            "size": 45,
            "text": "{\"Status\":\"0\",\"Message\":\"Added sucessfully!\"}"
          },
          "redirectURL": "",
          "headersSize": 312,
          "bodySize": 473
        },
        "cache": {},
        "timings": {
          "blocked": 0,
          "dns": 0,
          "connect": 0,
          "ssl": 0,
          "send": 0,
          "wait": 169,
          "receive": 0
        },
        "serverIPAddress": "52.174.150.25",
        "connection": "443"
      }